<svg xmlns="http://www.w3.org/2000/svg" width="79" height="80" viewBox="0 0 79 80" xmlns:xlink="http://www.w3.org/1999/xlink">
  <defs>
    <polygon id="a" points="0 .058 0 16.815 10.384 16.815 10.384 .058 0 .058"/>
    <polygon id="c" points="10.557 16.815 10.557 .059 .173 .059 .173 16.815 10.557 16.815"/>
    <polygon id="e" points="58.44 .116 .288 .116 .288 79.709 58.44 79.709 58.44 .116"/>
  </defs>
  <g fill="none" fill-rule="evenodd">
    <g transform="translate(0 3.375)">
      <mask id="b" fill="white">
        <use xlink:href="#a"/>
      </mask>
      <path fill="#3E53A4" d="M9.77590573,0.671738182 C8.96506411,-0.146007273 7.65000651,-0.146298182 6.83858799,0.671738182 L0.60828986,6.95508364 C-0.202840208,7.77312 -0.202840208,9.09937455 0.60828986,9.91741091 C0.608578313,9.91770182 0.609155219,9.91828364 0.609732126,9.91857455 L6.83858799,16.2010473 C7.24444147,16.6100655 7.77577205,16.8145745 8.30739108,16.8145745 C8.83872166,16.8145745 9.37034069,16.6100655 9.77561727,16.2010473 C10.5870358,15.3833018 10.5870358,14.0570473 9.77590573,13.2390109 L5.01383379,8.43639273 L9.77590573,3.63406545 C10.5870358,2.81602909 10.5870358,1.48977455 9.77590573,0.671738182" mask="url(#b)"/>
    </g>
    <g transform="translate(68.363 50.502)">
      <mask id="d" fill="white">
        <use xlink:href="#c"/>
      </mask>
      <path fill="#3E53A4" d="M9.94857374,6.95566545 L3.71798716,0.672029091 C2.907434,-0.146007273 1.59179949,-0.146007273 0.781246328,0.672029091 C-0.0301721924,1.49035636 -0.0301721924,2.81632 0.781246328,3.63406545 L5.54331827,8.43639273 L0.781246328,13.2393018 C-0.0301721924,14.0573382 -0.0301721924,15.3835927 0.781246328,16.2010473 C1.18652291,16.6103564 1.71814194,16.8148655 2.24976097,16.8148655 C2.78109155,16.8148655 3.31271058,16.6103564 3.71798716,16.2010473 L9.94857374,9.91770182 C10.7599923,9.09937455 10.7599923,7.77341091 9.94857374,6.95566545" mask="url(#d)"/>
    </g>
    <g transform="translate(10.096 .175)">
      <mask id="f" fill="white">
        <use xlink:href="#e"/>
      </mask>
      <path fill="#3E53A4" d="M38.7102306,75.5198836 L20.0184708,75.5198836 C16.0170497,75.5198836 12.7604144,72.2425018 12.7491647,68.2096291 C12.7494532,68.1988655 12.7494532,68.18752 12.7494532,68.17792 L12.7494532,60.8580655 L45.9792483,60.8580655 L45.9792483,68.1892655 C45.9792483,72.2311564 42.7182862,75.5198836 38.7102306,75.5198836 L38.7102306,75.5198836 Z M45.9792483,13.7307927 L45.9792483,33.43552 C41.0798727,30.1630836 35.317157,28.3926109 29.3646392,28.3926109 C23.4121214,28.3926109 17.6494057,30.1630836 12.7494532,33.4358109 L12.7494532,13.7313745 L45.9792483,13.7307927 Z M20.0187593,4.30562909 L38.7102306,4.30562909 C41.996865,4.30562909 44.7792834,6.51712 45.6752187,9.54141091 L13.0534827,9.54141091 C13.9497064,6.51712 16.7321249,4.30562909 20.0187593,4.30562909 L20.0187593,4.30562909 Z M12.7494532,38.6523927 C17.4082589,34.7335564 23.2707794,32.5817018 29.3646392,32.5817018 C35.458499,32.5817018 41.3210194,34.7332655 45.9792483,38.6518109 L45.9792483,46.2102109 C42.187244,41.1181382 36.1510748,37.8177745 29.3646392,37.8177745 C22.577915,37.8177745 16.5417458,41.1181382 12.7494532,46.2107927 L12.7494532,38.6523927 Z M29.3646392,47.2432291 C23.7755722,47.2432291 19.1144589,51.3136291 18.1345838,56.6686836 L12.8841608,56.6686836 C13.9098999,48.41472 20.9069063,42.0068655 29.3646392,42.0068655 C37.822372,42.0068655 44.8193784,48.41472 45.8448291,56.6686836 L22.399651,56.6686836 C23.2955863,53.6443927 26.0780047,51.43232 29.3646392,51.43232 C30.5115286,51.43232 31.4415014,50.4950109 31.4415014,49.3380655 C31.4415014,48.18112 30.5115286,47.2432291 29.3646392,47.2432291 L29.3646392,47.2432291 Z M56.3632708,56.6686836 L50.1332611,56.6686836 L50.1332611,11.6359564 C50.1332611,5.28395636 45.0088921,0.116247273 38.7102306,0.116247273 L20.0184708,0.116247273 C14.4291155,0.116247273 9.76771366,4.18693818 8.78812699,9.54228364 L2.3651422,9.54228364 C1.21825275,9.54228364 0.288280011,10.4798836 0.288280011,11.6368291 C0.288280011,12.7934836 1.21825275,13.7313745 2.3651422,13.7313745 L8.59572878,13.7313745 L8.59572878,68.1552291 C8.59572878,68.1671564 8.59544033,68.1785018 8.59544033,68.1892655 C8.59544033,74.5409745 13.7198093,79.7089745 20.0187593,79.7089745 L38.7102306,79.7089745 C45.0088921,79.7089745 50.1332611,74.5409745 50.1332611,68.1892655 L50.1332611,60.8580655 L56.3632708,60.8580655 C57.5104487,60.8580655 58.440133,59.9198836 58.440133,58.7629382 C58.440133,57.6062836 57.5104487,56.6686836 56.3632708,56.6686836 L56.3632708,56.6686836 Z" mask="url(#f)"/>
    </g>
    <path fill="#3E53A4" d="M39.4602374,65.7455709 C38.0286448,65.7455709 36.8641597,66.9199709 36.8641597,68.3637527 C36.8641597,69.8075345 38.0286448,70.9819345 39.4602374,70.9819345 C40.8918301,70.9819345 42.0566036,69.8075345 42.0566036,68.3637527 C42.0566036,66.9199709 40.8918301,65.7455709 39.4602374,65.7455709"/>
  </g>
</svg>
